<svg id="Layer_1" data-name="Layer 1" xmlns="http://www.w3.org/2000/svg" viewBox="0 0 32 32">
  <defs>
    <style>
      .cls-1 {
        fill: none;
        stroke: #00a0de;
        stroke-miterlimit: 10;
        stroke-width: 2px;
      }
    </style>
  </defs>
  <title>audi</title>
  <g>
    <path class="cls-1" d="M454,697a5,5,0,0,1,0-10Z" transform="translate(-448 -673)"/>
    <path class="cls-1" d="M474,687a5,5,0,0,1,0,10Z" transform="translate(-448 -673)"/>
    <path class="cls-1" d="M477,700a1.9,1.9,0,0,1-2,2" transform="translate(-448 -673)"/>
    <line class="cls-1" x1="23" y1="29" x2="27" y2="29"/>
    <circle class="cls-1" cx="20.5" cy="29" r="2"/>
    <path class="cls-1" d="M454,684a10,10,0,0,1,20,0" transform="translate(-448 -673)"/>
  </g>
</svg>
