<?xml version="1.0" encoding="utf-8"?>
<!-- Generator: Adobe Illustrator 16.0.0, SVG Export Plug-In . SVG Version: 6.00 Build 0)  -->
<!DOCTYPE svg PUBLIC "-//W3C//DTD SVG 1.1//EN" "http://www.w3.org/Graphics/SVG/1.1/DTD/svg11.dtd">
<svg version="1.1" id="Capa_1" xmlns="http://www.w3.org/2000/svg" xmlns:xlink="http://www.w3.org/1999/xlink" x="0px" y="0px"
	 width="131.585px" height="161.059px" viewBox="0 0 131.585 161.059" enable-background="new 0 0 131.585 161.059"
	 xml:space="preserve">
<g>
	<defs>
		<rect id="SVGID_1_" width="131.585" height="161.059"/>
	</defs>
	<clipPath id="SVGID_2_">
		<use xlink:href="#SVGID_1_"  overflow="visible"/>
	</clipPath>
	<path clip-path="url(#SVGID_2_)" fill="#2C3F70" d="M69.805,8.066c0,4.454-3.609,8.067-8.067,8.067
		c-4.453,0-8.066-3.613-8.066-8.067C53.672,3.613,57.285,0,61.738,0C66.195,0,69.805,3.613,69.805,8.066"/>
	<path clip-path="url(#SVGID_2_)" fill="#2C3F70" d="M112.543,8.066c0,4.454-3.609,8.067-8.066,8.067
		c-4.453,0-8.066-3.613-8.066-8.067c0-4.453,3.613-8.066,8.066-8.066C108.934,0,112.543,3.613,112.543,8.066"/>
	<path clip-path="url(#SVGID_2_)" fill="#2C3F70" d="M128.512,15.402C124.41,8.305,117.07,4.066,108.875,4.066v8
		c5.305,0,10.055,2.743,12.707,7.336c2.652,4.594,2.652,10.078,0,14.676L95.887,78.586c-2.652,4.594-7.402,7.336-12.707,7.336
		s-10.055-2.742-12.711-7.336L44.773,34.074c-2.652-4.594-2.652-10.078,0-14.672c2.653-4.593,7.403-7.336,12.707-7.336v-8
		c-8.195,0-15.535,4.239-19.636,11.336c-4.098,7.102-4.098,15.575,0,22.672l25.699,44.512c3.418,5.918,9.094,9.84,15.637,10.979
		v21.465c0,20.97-12.379,38.028-27.594,38.028S23.992,136,23.992,115.031V89.473c9.113-1.856,15.988-9.934,15.988-19.586
		c0-11.024-8.964-19.992-19.988-19.992C8.969,49.895,0,58.863,0,69.887c0,9.652,6.879,17.726,15.992,19.586v25.558
		c0,25.379,15.965,46.028,35.594,46.028c19.625,0,35.59-20.649,35.59-46.028V93.566c6.543-1.14,12.219-5.062,15.636-10.979
		l25.7-44.512C132.609,30.977,132.609,22.5,128.512,15.402"/>
</g>
</svg>
